%YAML 1.1
%TAG !u! tag:unity3d.com,2011:
--- !u!1 &4909706387543117906
GameObject:
  m_ObjectHideFlags: 0
  m_CorrespondingSourceObject: {fileID: 0}
  m_PrefabInstance: {fileID: 0}
  m_PrefabAsset: {fileID: 0}
  serializedVersion: 6
  m_Component:
  - component: {fileID: 4909706387543117904}
  - component: {fileID: 598520359397270957}
  m_Layer: 0
  m_Name: SOInit
  m_TagString: Untagged
  m_Icon: {fileID: 0}
  m_NavMeshLayer: 0
  m_StaticEditorFlags: 0
  m_IsActive: 1
--- !u!4 &4909706387543117904
Transform:
  m_ObjectHideFlags: 0
  m_CorrespondingSourceObject: {fileID: 0}
  m_PrefabInstance: {fileID: 0}
  m_PrefabAsset: {fileID: 0}
  m_GameObject: {fileID: 4909706387543117906}
  m_LocalRotation: {x: 0, y: 0, z: 0, w: 1}
  m_LocalPosition: {x: 0, y: 0, z: 0}
  m_LocalScale: {x: 1, y: 1, z: 1}
  m_Children: []
  m_Father: {fileID: 0}
  m_RootOrder: 0
  m_LocalEulerAnglesHint: {x: 0, y: 0, z: 0}
--- !u!114 &598520359397270957
MonoBehaviour:
  m_ObjectHideFlags: 0
  m_CorrespondingSourceObject: {fileID: 0}
  m_PrefabInstance: {fileID: 0}
  m_PrefabAsset: {fileID: 0}
  m_GameObject: {fileID: 4909706387543117906}
  m_Enabled: 1
  m_EditorHideFlags: 0
  m_Script: {fileID: 11500000, guid: e476e06f50565dc42a89c18374c5ed51, type: 3}
  m_Name: 
  m_EditorClassIdentifier: 
  gridObject: {fileID: 11400000, guid: 6d1e0559adcf5ac4e994eb731f1ad3bd, type: 2}
  gridWidth: 20
  gridHeight: 10
  cellSize: 1
  groundPrefab: {fileID: 252926377922414668, guid: 3c0a3d154b59ec7498288a83ef96ad32,
    type: 3}
  wall: {fileID: 4378437732997523172, guid: 2a422ae150ca9944eb91d8798bb63025, type: 3}
  mapHandlerObject: {fileID: 11400000, guid: 39cc6d7a62f78de4fbe2dabd8a7c5a3f, type: 2}
  speedMultiplierObject: {fileID: 11400000, guid: b4aafea0bce9c9c44b498b9001e9e70d,
    type: 2}
  peopleList: {fileID: 11400000, guid: 35388651033fd164cb884becaf23d9c4, type: 2}
